%!PS-Adobe-2.0
%%Title: event_display.ps ( A 4)
%%Pages: (atend)
%%Creator: ROOT Version 6.04/16
%%CreationDate: Sat Oct 14 18:41:55 2017
%%Orientation: Landscape
%%DocumentNeededResources: ProcSet (FontSetInit)
%%EndComments
%%BeginProlog
/s {stroke} def /l {lineto} def /m {moveto} def /t {translate} def
/r {rotate} def /rl {roll}  def /R {repeat} def
/d {rlineto} def /rm {rmoveto} def /gr {grestore} def /f {eofill} def
/c {setrgbcolor} def /black {0 setgray} def /sd {setdash} def
/cl {closepath} def /sf {scalefont setfont} def /lw {setlinewidth} def
/box {m dup 0 exch d exch 0 d 0 exch neg d cl} def
/NC{systemdict begin initclip end}def/C{NC box clip newpath}def
/bl {box s} def /bf {gsave box gsave f grestore 1 lw [] 0 sd s grestore} def /Y { 0 exch d} def /X { 0 d} def 
/K {{pop pop 0 moveto} exch kshow} bind def
/ita {/ang 15 def gsave [1 0 ang dup sin exch cos div 1 0 0] concat} def 
/mp {newpath /y exch def /x exch def} def
/side {[w .77 mul w .23 mul] .385 w mul sd w 0 l currentpoint t -144 r} def
/mr {mp x y w2 0 360 arc} def /m24 {mr s} def /m20 {mr f} def
/mb {mp x y w2 add m w2 neg 0 d 0 w neg d w 0 d 0 w d cl} def
/mt {mp x y w2 add m w2 neg w neg d w 0 d cl} def
/m21 {mb f} def /m25 {mb s} def /m22 {mt f} def /m26{mt s} def
/m23 {mp x y w2 sub m w2 w d w neg 0 d cl f} def
/m27 {mp x y w2 add m w3 neg w2 neg d w3 w2 neg d w3 w2 d cl s} def
/m28 {mp x w2 sub y w2 sub w3 add m w3 0 d  0 w3 neg d w3 0 d 0 w3 d w3 0 d  0 w3 d w3 neg 0 d 0 w3 d w3 neg 0 d 0 w3 neg d w3 neg 0 d cl s } def
/m29 {mp gsave x w2 sub y w2 add w3 sub m currentpoint t 4 {side} repeat cl fill gr} def
/m30 {mp gsave x w2 sub y w2 add w3 sub m currentpoint t 4 {side} repeat cl s gr} def
/m31 {mp x y w2 sub m 0 w d x w2 sub y m w 0 d x w2 sub y w2 add m w w neg d x w2 sub y w2 sub m w w d s} def
/m32 {mp x y w2 sub m w2 w d w neg 0 d cl s} def
/m33 {mp x y w2 add m w3 neg w2 neg d w3 w2 neg d w3 w2 d cl f} def
/m34 {mp x w2 sub y w2 sub w3 add m w3 0 d  0 w3 neg d w3 0 d 0 w3 d w3 0 d  0 w3 d w3 neg 0 d 0 w3 d w3 neg 0 d 0 w3 neg d w3 neg 0 d cl f } def
/m2 {mp x y w2 sub m 0 w d x w2 sub y m w 0 d s} def
/m5 {mp x w2 sub y w2 sub m w w d x w2 sub y w2 add m w w neg d s} def
%%IncludeResource: ProcSet (FontSetInit)
%%IncludeResource: font Times-Roman
%%IncludeResource: font Times-Italic
%%IncludeResource: font Times-Bold
%%IncludeResource: font Times-BoldItalic
%%IncludeResource: font Helvetica
%%IncludeResource: font Helvetica-Oblique
%%IncludeResource: font Helvetica-Bold
%%IncludeResource: font Helvetica-BoldOblique
%%IncludeResource: font Courier
%%IncludeResource: font Courier-Oblique
%%IncludeResource: font Courier-Bold
%%IncludeResource: font Courier-BoldOblique
%%IncludeResource: font Symbol
%%IncludeResource: font ZapfDingbats
/reEncode {exch findfont dup length dict begin {1 index /FID eq  {pop pop} {def} ifelse } forall /Encoding exch def currentdict end dup /FontName get exch definefont pop } def [/Times-Bold /Times-Italic /Times-BoldItalic /Helvetica /Helvetica-Oblique
 /Helvetica-Bold /Helvetica-BoldOblique /Courier /Courier-Oblique /Courier-Bold /Courier-BoldOblique /Times-Roman /AvantGarde-Book /AvantGarde-BookOblique /AvantGarde-Demi /AvantGarde-DemiOblique /Bookman-Demi /Bookman-DemiItalic /Bookman-Light
 /Bookman-LightItalic /Helvetica-Narrow /Helvetica-Narrow-Bold /Helvetica-Narrow-BoldOblique /Helvetica-Narrow-Oblique /NewCenturySchlbk-Roman /NewCenturySchlbk-Bold /NewCenturySchlbk-BoldItalic /NewCenturySchlbk-Italic /Palatino-Bold
 /Palatino-BoldItalic /Palatino-Italic /Palatino-Roman ] {ISOLatin1Encoding reEncode } forall/Zone {/iy exch def /ix exch def  ix 1 sub  3144 mul  1 iy sub  2224 mul t} def
%%EndProlog
%%BeginSetup
%%EndSetup
newpath  gsave  90 r 0 -594 t  28 20 t .25 .25 scale  gsave 
%%Page: 1 1
 gsave  black 1 1 1 c 2268 2948 0 0 bf black 1 1 1 c 2268 2948 0 0 bf 0.4 0.4 0.4 c[ 12 12] 0 sd 9 lw 0.95 0.95 0.95 c 0.4 0.4 0.4 c 1406 1474 m -261 912 d s[  ] 0 sd 3 lw 0.95 0.95 0.95 c 1129 2369 m 1 70 d 31 -36 d f[ 12 12] 0 sd 9 lw 0.4 0.4 0.4 c
 1129 2369 m 1 70 d 31 -36 d -32 -34 d cl s black 1 0.8 0 c black 1 0.8 0 c
 gsave  2268 2948 0 0 C 404.018 1361.59 t 0 r /Helvetica findfont 106.179 sf 0 0 m ( =   0 GeV) show NC gr  black 1 0.8 0 c
 gsave  2268 2948 0 0 C 381.211 1305.38 t 0 r /Helvetica findfont 68.7041 sf 0 0 m (T) show NC gr  black 1 0.8 0 c
 gsave  2268 2948 0 0 C 224.817 1361.59 t 0 r /Helvetica findfont 106.179 sf 0 0 m (Wjet p) show NC gr [  ] 0 sd 0.95 0.95 0.95 c 1 0.8 0 c 1406 1474 m -32 X s 3 lw 0.95 0.95 0.95 c 1374 1509 m 32 -35 d -32 -35 d f 9 lw 1 0.8 0 c 1374 1509 m 32 -35 d
 -32 -35 d 70 Y cl s black 1 0.8 0 c black 1 0.8 0 c
 gsave  2268 2948 0 0 C 404.018 1180.46 t 0 r /Helvetica findfont 106.179 sf 0 0 m ( =   0 GeV) show NC gr  black 1 0.8 0 c
 gsave  2268 2948 0 0 C 381.211 1124.25 t 0 r /Helvetica findfont 68.7041 sf 0 0 m (T) show NC gr  black 1 0.8 0 c
 gsave  2268 2948 0 0 C 224.817 1180.46 t 0 r /Helvetica findfont 106.179 sf 0 0 m (Wjet p) show NC gr  0.95 0.95 0.95 c 1 0.8 0 c 1406 1474 m -32 X s 3 lw 0.95 0.95 0.95 c 1374 1509 m 32 -35 d -32 -35 d f 9 lw 1 0.8 0 c 1374 1509 m 32 -35 d -32 -35
 d 70 Y cl s black 1 0 1 c black 1 0 1 c
 gsave  2268 2948 0 0 C 443.117 1711.36 t 0 r /Helvetica findfont 106.179 sf 0 0 m ( =   0 GeV) show NC gr  black 1 0 1 c
 gsave  2268 2948 0 0 C 420.31 1655.14 t 0 r /Helvetica findfont 68.7041 sf 0 0 m (T) show NC gr  black 1 0 1 c
 gsave  2268 2948 0 0 C 224.817 1711.36 t 0 r /Helvetica findfont 106.179 sf 0 0 m (lepton p) show NC gr  0.95 0.95 0.95 c 1 0 1 c 1406 1474 m -32 X s 3 lw 0.95 0.95 0.95 c 1374 1509 m 32 -35 d -32 -35 d f 9 lw 1 0 1 c 1374 1509 m 32 -35 d -32 -35 d
 70 Y cl s black 1 0 1 c black 1 0 1 c
 gsave  2268 2948 0 0 C 443.117 1536.47 t 0 r /Helvetica findfont 106.179 sf 0 0 m ( =   0 GeV) show NC gr  black 1 0 1 c
 gsave  2268 2948 0 0 C 420.31 1480.26 t 0 r /Helvetica findfont 68.7041 sf 0 0 m (T) show NC gr  black 1 0 1 c
 gsave  2268 2948 0 0 C 224.817 1536.47 t 0 r /Helvetica findfont 106.179 sf 0 0 m (lepton p) show NC gr  0.95 0.95 0.95 c 1 0 1 c 1406 1474 m -32 X s 3 lw 0.95 0.95 0.95 c 1374 1509 m 32 -35 d -32 -35 d f 9 lw 1 0 1 c 1374 1509 m 32 -35 d -32 -35 d
 70 Y cl s black
 gsave  2268 2948 0 0 C 1026.34 2860.59 t 0 r /Helvetica findfont 106.179 sf 0 0 m ( =   0 GeV) show NC gr 
 gsave  2268 2948 0 0 C 970.948 2810.62 t 0 r /Helvetica findfont 68.7041 sf 0 0 m (T,S) show NC gr 
 gsave  2268 2948 0 0 C 645.126 2860.59 t 0 r /Helvetica findfont 106.179 sf 0 0 m ( =   0 GeV, M) show NC gr 
 gsave  2268 2948 0 0 C 553.896 2804.38 t 0 r /Helvetica findfont 68.7041 sf 0 0 m (T,ISR) show NC gr 
 gsave  2268 2948 0 0 C 322.563 2860.59 t 0 r /Helvetica findfont 106.179 sf 0 0 m ( = 0.00, p) show NC gr 
 gsave  2268 2948 0 0 C 263.915 2829.36 t 0 r /Helvetica findfont 68.7041 sf 0 0 m (ISR) show NC gr 
 gsave  2268 2948 0 0 C 224.817 2860.59 t 0 r /Helvetica findfont 106.179 sf 0 0 m (R) show NC gr  0.4 0.4 0.4 c black 0.4 0.4 0.4 c
 gsave  2268 2948 0 0 C 224.817 2654.48 t 0 r /Helvetica findfont 106.179 sf 0 0 m (MET = 215 GeV) show NC gr  black 1 0 0 c black 1 0 0 c
 gsave  2268 2948 0 0 C 498.507 593.354 t 0 r /Helvetica findfont 106.179 sf 0 0 m (  =   0 GeV) show NC gr  black 1 0 0 c
 gsave  2268 2948 0 0 C 475.699 537.141 t 0 r /Helvetica findfont 68.7041 sf 0 0 m (T) show NC gr  black 1 0 0 c
 gsave  2268 2948 0 0 C 224.817 593.354 t 0 r /Helvetica findfont 106.179 sf 0 0 m (Tot. ISR p) show NC gr  gr  gsave 
 1 1 Zone
 gsave  0 0 t black[  ] 0 sd 3 lw 1 1 1 c 2268 1538 0 0 bf black 1 1 1 c 2268 1538 0 0 bf 0.4 0.4 0.4 c[ 12 12] 0 sd 9 lw 0.95 0.95 0.95 c 0.4 0.4 0.4 c 1406 769 m 850 -343 d s[  ] 0 sd 3 lw 0.95 0.95 0.95 c 2263 443 m 5 -6 d -25 Y -19 -3 d f[ 12 12]
 0 sd 9 lw 0.4 0.4 0.4 c 2263 443 m 5 -6 d s 2268 412 m -19 -3 d s 2249 409 m 14 34 d s black 1 0.8 0 c black 1 0.8 0 c
 gsave  2268 1538 0 0 C 404.018 710.291 t 0 r /Helvetica findfont 55.3896 sf 0 0 m ( =   0 GeV) show NC gr  black 1 0.8 0 c
 gsave  2268 1538 0 0 C 381.211 680.967 t 0 r /Helvetica findfont 35.8403 sf 0 0 m (T) show NC gr  black 1 0.8 0 c
 gsave  2268 1538 0 0 C 224.817 710.291 t 0 r /Helvetica findfont 55.3896 sf 0 0 m (Wjet p) show NC gr [  ] 0 sd 0.95 0.95 0.95 c 1 0.8 0 c 1406 769 m -32 X s 3 lw 0.95 0.95 0.95 c 1374 787 m 32 -18 d -32 -18 d f 9 lw 1 0.8 0 c 1374 787 m 32 -18 d
 -32 -18 d 36 Y cl s black 1 0.8 0 c black 1 0.8 0 c
 gsave  2268 1538 0 0 C 404.018 615.802 t 0 r /Helvetica findfont 55.3896 sf 0 0 m ( =   0 GeV) show NC gr  black 1 0.8 0 c
 gsave  2268 1538 0 0 C 381.211 586.478 t 0 r /Helvetica findfont 35.8403 sf 0 0 m (T) show NC gr  black 1 0.8 0 c
 gsave  2268 1538 0 0 C 224.817 615.802 t 0 r /Helvetica findfont 55.3896 sf 0 0 m (Wjet p) show NC gr  0.95 0.95 0.95 c 1 0.8 0 c 1406 769 m -32 X s 3 lw 0.95 0.95 0.95 c 1374 787 m 32 -18 d -32 -18 d f 9 lw 1 0.8 0 c 1374 787 m 32 -18 d -32 -18 d
 36 Y cl s black 1 0 1 c black 1 0 1 c
 gsave  2268 1538 0 0 C 443.117 892.75 t 0 r /Helvetica findfont 55.3896 sf 0 0 m ( =   0 GeV) show NC gr  black 1 0 1 c
 gsave  2268 1538 0 0 C 420.31 863.427 t 0 r /Helvetica findfont 35.8403 sf 0 0 m (T) show NC gr  black 1 0 1 c
 gsave  2268 1538 0 0 C 224.817 892.75 t 0 r /Helvetica findfont 55.3896 sf 0 0 m (lepton p) show NC gr  0.95 0.95 0.95 c 1 0 1 c 1406 769 m -32 X s 3 lw 0.95 0.95 0.95 c 1374 787 m 32 -18 d -32 -18 d f 9 lw 1 0 1 c 1374 787 m 32 -18 d -32 -18 d 36 Y
 cl s black 1 0 1 c black 1 0 1 c
 gsave  2268 1538 0 0 C 443.117 801.521 t 0 r /Helvetica findfont 55.3896 sf 0 0 m ( =   0 GeV) show NC gr  black 1 0 1 c
 gsave  2268 1538 0 0 C 420.31 772.197 t 0 r /Helvetica findfont 35.8403 sf 0 0 m (T) show NC gr  black 1 0 1 c
 gsave  2268 1538 0 0 C 224.817 801.521 t 0 r /Helvetica findfont 55.3896 sf 0 0 m (lepton p) show NC gr  0.95 0.95 0.95 c 1 0 1 c 1406 769 m -32 X s 3 lw 0.95 0.95 0.95 c 1374 787 m 32 -18 d -32 -18 d f 9 lw 1 0 1 c 1374 787 m 32 -18 d -32 -18 d 36
 Y cl s black
 gsave  2268 1538 0 0 C 1055.66 1492.26 t 0 r /Helvetica findfont 55.3896 sf 0 0 m ( = 102 GeV) show NC gr 
 gsave  2268 1538 0 0 C 1000.27 1466.2 t 0 r /Helvetica findfont 35.8403 sf 0 0 m (T,S) show NC gr 
 gsave  2268 1538 0 0 C 645.126 1492.26 t 0 r /Helvetica findfont 55.3896 sf 0 0 m ( = 230 GeV, M) show NC gr 
 gsave  2268 1538 0 0 C 553.896 1462.94 t 0 r /Helvetica findfont 35.8403 sf 0 0 m (T,ISR) show NC gr 
 gsave  2268 1538 0 0 C 322.563 1492.26 t 0 r /Helvetica findfont 55.3896 sf 0 0 m ( = 0.78, p) show NC gr 
 gsave  2268 1538 0 0 C 263.915 1475.97 t 0 r /Helvetica findfont 35.8403 sf 0 0 m (ISR) show NC gr 
 gsave  2268 1538 0 0 C 224.817 1492.26 t 0 r /Helvetica findfont 55.3896 sf 0 0 m (R) show NC gr  0.4 0.4 0.4 c black 0.4 0.4 0.4 c
 gsave  2268 1538 0 0 C 224.817 1384.74 t 0 r /Helvetica findfont 55.3896 sf 0 0 m (MET = 171 GeV) show NC gr  black 1 0 0 c black 1 0 0 c
 gsave  2268 1538 0 0 C 498.507 309.53 t 0 r /Helvetica findfont 55.3896 sf 0 0 m (  =   0 GeV) show NC gr  black 1 0 0 c
 gsave  2268 1538 0 0 C 475.699 280.206 t 0 r /Helvetica findfont 35.8403 sf 0 0 m (T) show NC gr  black 1 0 0 c
 gsave  2268 1538 0 0 C 224.817 309.53 t 0 r /Helvetica findfont 55.3896 sf 0 0 m (Tot. ISR p) show NC gr  gr 
showpage gr 
%%Page: 2 2
 gsave 
 1 1 Zone
 gsave  0 0 t black[  ] 0 sd 3 lw 1 1 1 c 2268 1538 0 0 bf black 1 1 1 c 2268 1538 0 0 bf 0.4 0.4 0.4 c[ 12 12] 0 sd 9 lw 0.95 0.95 0.95 c 0.4 0.4 0.4 c 1406 769 m 69 -555 d s[  ] 0 sd 3 lw 0.95 0.95 0.95 c 1493 216 m -15 -34 d -22 29 d f[ 12 12] 0
 sd 9 lw 0.4 0.4 0.4 c 1493 216 m -15 -34 d -22 29 d 37 5 d cl s black 1 0.8 0 c black 1 0.8 0 c
 gsave  2268 1538 0 0 C 404.018 710.291 t 0 r /Helvetica findfont 55.3896 sf 0 0 m ( =   0 GeV) show NC gr  black 1 0.8 0 c
 gsave  2268 1538 0 0 C 381.211 680.967 t 0 r /Helvetica findfont 35.8403 sf 0 0 m (T) show NC gr  black 1 0.8 0 c
 gsave  2268 1538 0 0 C 224.817 710.291 t 0 r /Helvetica findfont 55.3896 sf 0 0 m (Wjet p) show NC gr [  ] 0 sd 0.95 0.95 0.95 c 1 0.8 0 c 1406 769 m -32 X s 3 lw 0.95 0.95 0.95 c 1374 787 m 32 -18 d -32 -18 d f 9 lw 1 0.8 0 c 1374 787 m 32 -18 d
 -32 -18 d 36 Y cl s black 1 0.8 0 c black 1 0.8 0 c
 gsave  2268 1538 0 0 C 404.018 615.802 t 0 r /Helvetica findfont 55.3896 sf 0 0 m ( =   0 GeV) show NC gr  black 1 0.8 0 c
 gsave  2268 1538 0 0 C 381.211 586.478 t 0 r /Helvetica findfont 35.8403 sf 0 0 m (T) show NC gr  black 1 0.8 0 c
 gsave  2268 1538 0 0 C 224.817 615.802 t 0 r /Helvetica findfont 55.3896 sf 0 0 m (Wjet p) show NC gr  0.95 0.95 0.95 c 1 0.8 0 c 1406 769 m -32 X s 3 lw 0.95 0.95 0.95 c 1374 787 m 32 -18 d -32 -18 d f 9 lw 1 0.8 0 c 1374 787 m 32 -18 d -32 -18 d
 36 Y cl s black 1 0 1 c black 1 0 1 c
 gsave  2268 1538 0 0 C 443.117 892.75 t 0 r /Helvetica findfont 55.3896 sf 0 0 m ( =   0 GeV) show NC gr  black 1 0 1 c
 gsave  2268 1538 0 0 C 420.31 863.427 t 0 r /Helvetica findfont 35.8403 sf 0 0 m (T) show NC gr  black 1 0 1 c
 gsave  2268 1538 0 0 C 224.817 892.75 t 0 r /Helvetica findfont 55.3896 sf 0 0 m (lepton p) show NC gr  0.95 0.95 0.95 c 1 0 1 c 1406 769 m -32 X s 3 lw 0.95 0.95 0.95 c 1374 787 m 32 -18 d -32 -18 d f 9 lw 1 0 1 c 1374 787 m 32 -18 d -32 -18 d 36 Y
 cl s black 1 0 1 c black 1 0 1 c
 gsave  2268 1538 0 0 C 443.117 801.521 t 0 r /Helvetica findfont 55.3896 sf 0 0 m ( =   0 GeV) show NC gr  black 1 0 1 c
 gsave  2268 1538 0 0 C 420.31 772.197 t 0 r /Helvetica findfont 35.8403 sf 0 0 m (T) show NC gr  black 1 0 1 c
 gsave  2268 1538 0 0 C 224.817 801.521 t 0 r /Helvetica findfont 55.3896 sf 0 0 m (lepton p) show NC gr  0.95 0.95 0.95 c 1 0 1 c 1406 769 m -32 X s 3 lw 0.95 0.95 0.95 c 1374 787 m 32 -18 d -32 -18 d f 9 lw 1 0 1 c 1374 787 m 32 -18 d -32 -18 d 36
 Y cl s black
 gsave  2268 1538 0 0 C 1026.34 1492.26 t 0 r /Helvetica findfont 55.3896 sf 0 0 m ( =   0 GeV) show NC gr 
 gsave  2268 1538 0 0 C 970.948 1466.2 t 0 r /Helvetica findfont 35.8403 sf 0 0 m (T,S) show NC gr 
 gsave  2268 1538 0 0 C 645.126 1492.26 t 0 r /Helvetica findfont 55.3896 sf 0 0 m ( =   0 GeV, M) show NC gr 
 gsave  2268 1538 0 0 C 553.896 1462.94 t 0 r /Helvetica findfont 35.8403 sf 0 0 m (T,ISR) show NC gr 
 gsave  2268 1538 0 0 C 322.563 1492.26 t 0 r /Helvetica findfont 55.3896 sf 0 0 m ( = 0.00, p) show NC gr 
 gsave  2268 1538 0 0 C 263.915 1475.97 t 0 r /Helvetica findfont 35.8403 sf 0 0 m (ISR) show NC gr 
 gsave  2268 1538 0 0 C 224.817 1492.26 t 0 r /Helvetica findfont 55.3896 sf 0 0 m (R) show NC gr  0.4 0.4 0.4 c black 0.4 0.4 0.4 c
 gsave  2268 1538 0 0 C 224.817 1384.74 t 0 r /Helvetica findfont 55.3896 sf 0 0 m (MET = 142 GeV) show NC gr  black 1 0 0 c black 1 0 0 c
 gsave  2268 1538 0 0 C 498.507 309.53 t 0 r /Helvetica findfont 55.3896 sf 0 0 m (  =   0 GeV) show NC gr  black 1 0 0 c
 gsave  2268 1538 0 0 C 475.699 280.206 t 0 r /Helvetica findfont 35.8403 sf 0 0 m (T) show NC gr  black 1 0 0 c
 gsave  2268 1538 0 0 C 224.817 309.53 t 0 r /Helvetica findfont 55.3896 sf 0 0 m (Tot. ISR p) show NC gr  gr 
showpage gr 
%%Page: 3 3
 gsave 
 1 1 Zone
 gsave  0 0 t black[  ] 0 sd 3 lw 1 1 1 c 2268 1538 0 0 bf black 1 1 1 c 2268 1538 0 0 bf 0.4 0.4 0.4 c[ 12 12] 0 sd 9 lw 0.95 0.95 0.95 c 0.4 0.4 0.4 c 1406 769 m 271 559 d s[  ] 0 sd 3 lw 0.95 0.95 0.95 c 1660 1336 m 31 20 d 2 -36 d f[ 12 12] 0 sd
 9 lw 0.4 0.4 0.4 c 1660 1336 m 31 20 d 2 -36 d -33 16 d cl s black 1 0.8 0 c black 1 0.8 0 c
 gsave  2268 1538 0 0 C 404.018 710.291 t 0 r /Helvetica findfont 55.3896 sf 0 0 m ( =   0 GeV) show NC gr  black 1 0.8 0 c
 gsave  2268 1538 0 0 C 381.211 680.967 t 0 r /Helvetica findfont 35.8403 sf 0 0 m (T) show NC gr  black 1 0.8 0 c
 gsave  2268 1538 0 0 C 224.817 710.291 t 0 r /Helvetica findfont 55.3896 sf 0 0 m (Wjet p) show NC gr [  ] 0 sd 0.95 0.95 0.95 c 1 0.8 0 c 1406 769 m -32 X s 3 lw 0.95 0.95 0.95 c 1374 787 m 32 -18 d -32 -18 d f 9 lw 1 0.8 0 c 1374 787 m 32 -18 d
 -32 -18 d 36 Y cl s black 1 0.8 0 c black 1 0.8 0 c
 gsave  2268 1538 0 0 C 404.018 615.802 t 0 r /Helvetica findfont 55.3896 sf 0 0 m ( =   0 GeV) show NC gr  black 1 0.8 0 c
 gsave  2268 1538 0 0 C 381.211 586.478 t 0 r /Helvetica findfont 35.8403 sf 0 0 m (T) show NC gr  black 1 0.8 0 c
 gsave  2268 1538 0 0 C 224.817 615.802 t 0 r /Helvetica findfont 55.3896 sf 0 0 m (Wjet p) show NC gr  0.95 0.95 0.95 c 1 0.8 0 c 1406 769 m -32 X s 3 lw 0.95 0.95 0.95 c 1374 787 m 32 -18 d -32 -18 d f 9 lw 1 0.8 0 c 1374 787 m 32 -18 d -32 -18 d
 36 Y cl s black 1 0 1 c black 1 0 1 c
 gsave  2268 1538 0 0 C 443.117 892.75 t 0 r /Helvetica findfont 55.3896 sf 0 0 m ( =   0 GeV) show NC gr  black 1 0 1 c
 gsave  2268 1538 0 0 C 420.31 863.427 t 0 r /Helvetica findfont 35.8403 sf 0 0 m (T) show NC gr  black 1 0 1 c
 gsave  2268 1538 0 0 C 224.817 892.75 t 0 r /Helvetica findfont 55.3896 sf 0 0 m (lepton p) show NC gr  0.95 0.95 0.95 c 1 0 1 c 1406 769 m -32 X s 3 lw 0.95 0.95 0.95 c 1374 787 m 32 -18 d -32 -18 d f 9 lw 1 0 1 c 1374 787 m 32 -18 d -32 -18 d 36 Y
 cl s black 1 0 1 c black 1 0 1 c
 gsave  2268 1538 0 0 C 443.117 801.521 t 0 r /Helvetica findfont 55.3896 sf 0 0 m ( =   0 GeV) show NC gr  black 1 0 1 c
 gsave  2268 1538 0 0 C 420.31 772.197 t 0 r /Helvetica findfont 35.8403 sf 0 0 m (T) show NC gr  black 1 0 1 c
 gsave  2268 1538 0 0 C 224.817 801.521 t 0 r /Helvetica findfont 55.3896 sf 0 0 m (lepton p) show NC gr  0.95 0.95 0.95 c 1 0 1 c 1406 769 m -32 X s 3 lw 0.95 0.95 0.95 c 1374 787 m 32 -18 d -32 -18 d f 9 lw 1 0 1 c 1374 787 m 32 -18 d -32 -18 d 36
 Y cl s black
 gsave  2268 1538 0 0 C 1026.34 1492.26 t 0 r /Helvetica findfont 55.3896 sf 0 0 m ( =   0 GeV) show NC gr 
 gsave  2268 1538 0 0 C 970.948 1466.2 t 0 r /Helvetica findfont 35.8403 sf 0 0 m (T,S) show NC gr 
 gsave  2268 1538 0 0 C 645.126 1492.26 t 0 r /Helvetica findfont 55.3896 sf 0 0 m ( =   0 GeV, M) show NC gr 
 gsave  2268 1538 0 0 C 553.896 1462.94 t 0 r /Helvetica findfont 35.8403 sf 0 0 m (T,ISR) show NC gr 
 gsave  2268 1538 0 0 C 322.563 1492.26 t 0 r /Helvetica findfont 55.3896 sf 0 0 m ( = 0.00, p) show NC gr 
 gsave  2268 1538 0 0 C 263.915 1475.97 t 0 r /Helvetica findfont 35.8403 sf 0 0 m (ISR) show NC gr 
 gsave  2268 1538 0 0 C 224.817 1492.26 t 0 r /Helvetica findfont 55.3896 sf 0 0 m (R) show NC gr  0.4 0.4 0.4 c black 0.4 0.4 0.4 c
 gsave  2268 1538 0 0 C 224.817 1384.74 t 0 r /Helvetica findfont 55.3896 sf 0 0 m (MET = 246 GeV) show NC gr  black 1 0 0 c black 1 0 0 c
 gsave  2268 1538 0 0 C 498.507 309.53 t 0 r /Helvetica findfont 55.3896 sf 0 0 m (  =   0 GeV) show NC gr  black 1 0 0 c
 gsave  2268 1538 0 0 C 475.699 280.206 t 0 r /Helvetica findfont 35.8403 sf 0 0 m (T) show NC gr  black 1 0 0 c
 gsave  2268 1538 0 0 C 224.817 309.53 t 0 r /Helvetica findfont 55.3896 sf 0 0 m (Tot. ISR p) show NC gr  gr 
showpage gr 
%%Page: 4 4
 gsave 
 1 1 Zone
 gsave  0 0 t gr showpage
 gr 
%%Trailer
%%Pages:  4
 gr  gr 
%%EOF
